{
    "name":"CommandBox Git protect",
    "shortDescription":"Prevent git repos from being overwritten on box install",
    "type":"commandbox-modules",
    "version":"VERSION_NUMBER",
    "location":"https://bitbucket.org/REPO_FULL_NAME/downloads/ZIP_FILE",
    "author":"Seb Duggan",
    "homepage":"https://bitbucket.org/REPO_FULL_NAME",
    "documentation":"https://bitbucket.org/REPO_FULL_NAME",
    "repository":{
        "type":"git",
        "URL":"https://bitbucket.org/REPO_FULL_NAME"
    },
    "slug":"commandbox-git-protect",
    "projectURL":"https://bitbucket.org/REPO_FULL_NAME",
    "bugs":"https://bitbucket.org/REPO_FULL_NAME/issues",
    "ignore":[
        ".git/*",
        ".gitignore",
        ".twgit*",
        "*.sh"
    ]
}
